[
	{
	   "_id": "BLOCK_PROJECT",
	   "_rev": "3-7833d9d4b3f0479c27c26f9882b39bf6",
	   "type": "project",
	   "level": "main",
	   "icon": "path/to/icon-screen.png",
	   "states": null,
	   "events": null,
	   "resume": "A project contains one or several experiences which allows to create various roles that can interact with each other within the same project. A project has different settings that are shared with all its experiences.",
	   "selected": false,
	   "previewable": false,
	   "inspector": {
	       "type": "main",
	       "text": "",
	       "field": null,
	       "isAccordion": false,
	       "children": [
				{
					"type": "topic",
					"name": "topic-icons",
					"title": "Icons And Covers",
					"isAccordion": true,
					"children": [
						{
							"type": "param",
							"widget": "Asset",
							"assetType": "image",
							"name": "cover",
							"label": "Cover Image",
							"description": "Sets a custom cover for the Project. It will be used as a welcome image when playing the Project and as a preview image in the project list."
						},
						{
							"type": "param",
							"widget": "Asset",
							"assetType": "image",
							"name": "og",
							"label": "Open Graph Image",
							"description": "Sets a custom Open Graph (OG) image for the Project. See https://ogp.me/ for more information."
						},
						{
							"type": "param",
							"widget": "Asset",
							"assetType": "image",
							"name": "favicon",
							"label": "Favicon",
							"description": "Sets a custom favicon (web page icon) for the Project."
						},
						{
							"type": "param",
							"widget": "Asset",
							"assetType": "image",
							"name": "touchicon",
							"label": "Touch Icon",
							"description": "Sets a custom touch icon for the Project. It will be used as a shortcut icon for Apple mobile devices. The image must be a PNG and the recommended size in pixels is 180x180."
						}
					]
				}
	       ]
	   },
	   "name": "Project"
	},
	{
		"_id": "BLOCK_SESSION",
		"type": "session-set",
		"level": "project",
		"icon": "path/to/icon-screen.png",
		"resume": "A project contains one or several experiences which allows to create various roles that can interact with each other within the same project. A project has different settings that are shared with all its experiences.",
		"inspector": {
			"type": "main",
			"text": "",
			"field": null,
			"isAccordion": false,
			"children": [
				{
				 "type": "topic",
				 "name": "topic1",
				 "title": "Session template settings",
				 "isAccordion": true,
				 "children": [{
					"type": "group",
					"name": "group1",
					"title": "Parameters",
					"isAccordion": true,
					"children": [
					  {
						"type": "group-field",
						"name": "group-field1",
						"children": [
							{
								"type": "param",
								"name": "maxClient",
								"widget": "int",
								"coreFormat": "Int",
								"default": 50,
								"label": "Room Size",
								"resume": "Sets the size of the room."

							},
							{
								"type": "param",
								"name": "duplicable",
								"widget": "boolean",
								"coreFormat": "Boolean",
								"default": false,
								"label": "Create New If Full",
								"resume": "Creates a new room when the current one is full."
							},
							{
								"type": "param",
								"name": "sessionDuration",
								"widget": "float",
								"coreFormat": "Float",
								"default": 60,
								"unit": "min",
								"label": "Duration",
								"resume": "Sets the duration of the session, starting from the its creation."
							},
							{
								"type": "param",
								"name": "duration",
								"widget": "float",
								"coreFormat": "Float",
								"default": 60,
								"unit": "min",
								"label": "Timeframe",
								"resume": "Sets the time during which users can register to the session, starting from its creation."
							},
							{
								"type": "param",
								"name": "autoJoin",
								"widget": "boolean",
								"coreFormat": "Boolean",
								"default": false,
								"label": "Auto Register",
								"conditions": [ { "field": "hasGeo", "value": false, "operator": "==" } ],
								"resume": "If set to True, enables the auto registration of the user."
							},
							{
								"type": "param",
								"name": "ticketsConfig",
								"widget": "select",
								"coreFormat": "int",
								"default": 1,
								"label": "Tickets Attribution",
								"resume": "Specifies the mode of ticket attribution. First Free : the user gets the first available ticket / Incremental : the user gets the next ticket / Random : the user gets a random ticket.",
								"options": [
									{
										"label": "First free",
										"value": 1
									},
									{
										"label": "Incremental",
										"value": 2
									},
									{
									"label": "Random",
									"value": 3
									}
								]
							},
							{
								"type": "param",
								"name": "schedulingMode",
								"widget": "select",
								"coreFormat": "String",
								"default": "permanent",
								"label": "Creation Mode",
								"resume": "Specifies the session creation mode. On demand / Once / Repeated.",
								"options": [
									{
										"label": "On demand",
										"value": "permanent"
									},
									{
										"label": "Once",
										"value": "once"
									},
									{
									"label": "Repeated",
									"value": "repeated"
									}
								]
							}
						]
					  }
					]
				},{
					"type": "group",
					"name": "group-geo",
					"title": "Geo Condition",
					"isAccordion": true,
					"children": [
					  {
						"type": "group-field",
						"name": "group-field-geo",
						"children": [
							{
								"type": "param",
								"name": "hasGeo",
								"widget": "boolean",
								"coreFormat": "Boolean",
								"default": false,
								"label": "Restriction",
								"resume": "If set to True, enable the geographic restriction of the session."
							},
							{
								"type": "param",
								"name": "geoCenter",
								"widget": "geo",
								"coreFormat": "Geo",
								"default": null,
								"label": "Center Position",
								"conditions": [ { "field": "hasGeo", "value": true, "operator": "==" } ],
								"resume": "Specifies the center position of the geographic restriction."
							},
							{
								"type": "param",
								"name": "geoRadius",
								"widget": "int",
								"coreFormat": "Int",
								"default": 250,
								"unit": "m",
								"label": "Radius",
								"conditions": [ { "field": "hasGeo", "value": true, "operator": "==" } ],
								"resume": "Sets the radius around the restriction center position."
							}
						]
					  }
					]
				},
				{
					"type": "group",
					"name": "group2",
					"title": "Scheduling",
					"isAccordion": true,
					"children": [
					  {
						"type": "group-field",
						"name": "group-field2",
						"children": [
							{
								"type": "param",
								"name": "startTime",
								"widget": "timestamp",
								"coreFormat": "Timestamp",
								"default": "",
								"label": "Start Time",
								"resume": "Sets starting time for the session.",
								"conditions": [
									{
									  "field": "schedulingMode",
									  "value": "permanent",
									  "operator": "!="
									}
								]
							},
							{
								"type": "param",
								"name": "every",
								"widget": "int",
								"coreFormat": "Int",
								"default": 60,
								"label": "Every",
								"unit": "min",
								"conditions": [
								   {
									 "field": "schedulingMode",
									 "value": "repeated",
									 "operator": "=="
								   }
								 ]
							},
							{
								"type": "param",
								"name": "endTime",
								"widget": "timestamp",
								"coreFormat": "Timestamp",
								"default": "",
								"label": "Until",
								"conditions": [
								   {
									 "field": "schedulingMode",
									 "value": "repeated",
									 "operator": "=="
								   }
								 ]
							}
						]
					  }
					]
				 }]
				}
			]
		},
		"name": "Session Template"
	 },
	{
	   "_id": "BLOCK_EXPERIENCE",
	   "_rev": "5-351b9e6b4c12430fc0de60cc969be978",
	   "type": "experience",
	   "level": "project",
	   "icon": "path/to/icon-screen.png",
	   "states": null,
	   "events": null,
	   "resume": "An experience is level that organizes the user experience. It contains a series of screens linked by conditions and settings that are shared between screens. Each experience has a target that defines on what it will be displayed (Mobile, Desktop, Tablet...). The authoring interface adapts according to the target (available modules).",
	   "selected": false,
	   "previewable": false,
	   "description": "Specifies which targets are added to the experience.",
	   "targets": [
	       {
	           "title": "Mobile",
	           "name": "mobile",
			   "parent": "experience"
	       },
	       {
	           "title": "Tablet",
	           "name": "tablet",
			   "parent": "experience"
	       },
	       {
	           "title": "Desktop",
	           "name": "desktop",
			   "parent": "experience"
		   }
	   ],
	   "inspector": {
	       "type": "main",
	       "text": "",
	       "field": null,
	       "isAccordion": false,
	       "children": [
			   {
				"type": "topic",
				"name": "topic1",
				"title": "Geo Beacon Settings",
				"isAccordion": true,
				"children": [
						{
							"type": "param",
							"name": "geoMode",
							"widget": "select",
							"coreFormat": "String",
							"default": "auto",
							"label": "Mode",
							"description": "Specifies the mode uses for the Geo Beacon: Auto / Manual.",
							"options": [
							{
								"label": "Auto",
								"value": "auto"
							},
							{
								"label": "Manual",
								"value": "manual"
							}
							]
						}
					]
				},
				{
				"type": "topic",
				"name": "topic1",
				"title": "BLE Beacon Settings",
				"isAccordion": true,
				"children": [
						{
							"type": "param",
							"widget": "boolean",
							"default": false,
							"name": "activateBle",
							"label": "Activate BLE Plugin",
							"description": "If set to True, enables the BLE Plugin."
						},
						{
							"type": "param",
							"widget": "string",
							"default": "74278BDA-B644-4520-8F0C-720EAF059935",
							"name": "uuid",
							"label": "Proximity UUID",
							"description": "Specifies the proximity UUID that ensures the proper identification of an BLE Beacon region."
						},
						{
							"type": "param",
							"name": "bleMode",
							"widget": "select",
							"coreFormat": "String",
							"default": "auto",
							"label": "Mode",
							"description": "Specifies the mode uses for the Geo Beacon: Auto / Manual.",
							"options": [
								{
									"label": "Auto",
									"value": "auto"
								},
								{
									"label": "Manual",
									"value": "manual"
								}
							]
						}
					]
				},
				{
				"type": "topic",
				"name": "topic-ga",
				"title": "Google Analytics Settings",
				"isAccordion": true,
				"children": [
						{
							"type": "param",
							"widget": "string",
							"default": null,
							"name": "gaTrackingCode",
							"label": "Tracking Code",
							"description": "Specifies the unique tracking code of the Google Analytics."
						}
					]
				},
				{
					"type": "topic",
					"name": "topic-motioninput",
					"title": "Motion Input Settings",
					"isAccordion": true,
					"children": [
						{
							"type": "param",
							"widget": "int",
							"default": 60,
							"name": "MotionInputExecFreq",
							"label": "Execution Frequency",
							"description": "Specifies the frequency of execution of the device-motion service in Hertz (Hz). This setting is common to all Motion Input modules. Regardless of this execution frequency, if necessary, enable the module 'Throttle' option and set the 'Throttle Frequency' parameter to define the time period at which each module should receive the current data.",
							"unit": "Hz",
							"min": 0
						}
					]
				},
				{
				"type": "topic",
				"name": "topic-osc",
				"title": "OSC Settings",
				"isAccordion": true,
				"children": [
						{
							"type": "param",
							"widget": "boolean",
							"default": false,
							"name": "activateOSC",
							"label": "Activate OSC Plugin",
							"description": "If set to True, enables communications through Open Sound Control (OSC) protocol."
						},
						{
							"type": "param",
							"widget": "boolean",
							"default": true,
							"name": "listen",
							"label": "Start Listening",
							"description": "Starts listening for OSC messages on given port."
						},
						{
							"type": "param",
							"widget": "int",
							"default": 8000,
							"name": "port",
							"label": "Port",
							"description": "Specifies the port to listen on."
						}
					]
				},
				{
				"type": "topic",
				"name": "topic-osc",
				"title": "Map Settings",
				"isAccordion": true,
				"children": [
						{
							"type": "param",
							"name": "mapLibrary",
							"widget": "select",
							"coreFormat": "String",
							"default": "ui-map-ol",
							"label": "Map Library",
							"updateConfig" : true,
							"disabled" : true,
							"description": "Specifies the map library used for the experience.",
							"options": [
								{
									"label": "Mapbox",
									"value": "ui-mapbox"
								},
								{
									"label": "OpenLayers 3",
									"value": "ui-map-ol"
								}
							]
						},
						{
							"type": "param",
							"name": "projection",
							"widget": "select",
							"coreFormat": "String",
							"default": "lambert93",
							"label": "Conversion Projection",
							"description": "Specifies which conversion is set for the map projection.",
							"options": [
								{
									"value": "lambert93",
									"label": "lambert93"
								},
								{
									"value": "mercator",
									"label": "mercator"
								}
							]
						},
						{
							"type": "param",
							"name": "refCenter",
							"widget": "Geo",
							"coreFormat": "Geo",
							"default": {"lat":0, "lng":0},
							"label": "Referential Center",
							"description": "Sets the referential center of the map."
						}
				]
				}
	       ]
	   },
	   "name": "Experience"
	},
	{
	   "_id": "BLOCK_SCREEN",
	   "_rev": "17-b8c3bcbc961e604226e30355143809d8",
	   "type": "screen",
	   "level": "experience",
	   "name": "Screen",
	   "icon": "path/to/icon-screen.png",
	   "parent": "screenblocks",
	   "objectAssociated": "ui-screen",
	   "states": {
	       "in": [
	           "play"
	       ],
	       "out": [
	           "stop"
	       ]
	   },
	   "events": null,
	   "autoLinkActivation": {
		"connection": {
			"activate": {
				"pluggable" : true,
				"force": true
				}
			}
   		},
	   "resume": "A screen is one step of the experience. It contains an inspector with various parameters. Each screen contains two views : The HTML View which opens the screen editor to design the graphics of the screen and the Logic View that contains Processes and Triggers to design the interactivity and behavior. The user can build the experience by associating and setting different screens.",
	   "selected": false,
	   "previewable": false,
	   "inspector": {
	       "type": "main",
	       "text": "",
	       "field": null,
	       "isAccordion": false,
	       "children": [
				{
					"type": "state-manager",
					"name": "state-manager",
					"title": "State Manager",
					"side": "out"
				},
				{
					"type": "topic",
					"name": "topic1",
					"title": "Settings",
					"isAccordion": true,
					"children": [
						{
							"type": "group",
							"name": "group1",
							"title": "Parameters",
							"isAccordion": true,
							"children": [
								{
									"type": "group-field",
									"name": "group-field1",
									"children": [
										{
											"type": "field",
											"name": "resetMemories",
											"widget": "calculated",
											"coreFormat": "calculated",
											"default": "",
											"label": "Reset Memories",
											"description": "Allows to reset the memories to the state defined in the authoring.",
											"connection": {
												"in": {
													"pluggable": true,
													"default": false
												},
												"out": {
													"pluggable": false,
													"default": false,
													"disabled": true
												}
											}
										},
										{
											"type": "field",
											"name": "resetUis",
											"widget": "calculated",
											"coreFormat": "calculated",
											"default": "",
											"label": "Reset UIs",
											"description": "Allows to reset the UIs to the state defined in the authoring.",
											"connection": {
												"in": {
													"pluggable": true,
													"default": false
												},
												"out": {
													"pluggable": false,
													"default": false,
													"disabled": true
												}
											}
										}
									]
								}
							]
						}
					]
				}
	       ]
	   }
	},
	{
	   "_id": "BLOCK_WIDGET",
	   "type": "widget",
	   "level": "experience",
	   "name": "Widget",
	   "icon": "path/to/icon-screen.png",
	   "parent": "screenblocks",
	   "objectAssociated": "ui-widget",
	   "states": {
	   },
	   "events": null,
	   "resume": "A widget is a generic screen element that can be add to any screen. As the screen, it contains two views : The HTML View which opens the screen editor to design the graphics of the screen and the Logic View that contains Processes and Triggers to design the interactivity and behavior.",
	   "selected": false,
	   "previewable": false,
	   "inspector": {
		"type": "main",
		"isAccordion": false,
		"children": [
			{
			"type": "topic",
			"name": "topic1",
			"title": "Settings",
			"isAccordion": true,
			"children": [

			]
		  }
		]
	  }
	},
	{
	   "_id": "BLOCK_XP_TRIGGER",
	   "_rev": "6-18eae11a0b9a4226271aac274700240e",
	   "type": "trigger",
	   "level": "experience",
	   "icon": "path/to/icon-navbar.png",
	   "parent": "screenblocks",
	   "states": {
	       "out": [
	           "true",
	           "false"
	       ]
	   },
	   "events": null,
	   "resume": "A trigger allows to create the conditions to activate a screen of a process. These conditions are states and events that can be acumulated.",
	   "selected": false,
	   "previewable": false,
	   "inspector": {
	       "type": "main",
	       "field": null,
	       "isAccordion": false,
	       "children": [
	       ]
	   },
	   "name": "Trigger"
	},
	{
	   "_id": "BLOCK_XP_PROCESS",
	   "_rev": "2-4c5ad4c682812c9cfc83e9ae832956c2",
	   "type": "process",
	   "level": "experience",
	   "icon": "path/to/icon-navbar.png",
	   "states": {
	       "in": [
	           "play",
	           "stop"
	       ],
	       "out": [
	           "play",
	           "stop"
	       ]
	   },
	   "events": null,
	   "autoStart": true,
	   "resume": "A process is a logic components container. It allows to build the interactivity and behaviors of the experience. It can be place in the Logic View of a process or a widget, and also at the experience level next to the screens.",
	   "selected": false,
	   "previewable": false,
	   "parent": "screenblocks",
	   "inspector": {
	       "type": "main",
	       "text": "",
	       "field": null,
	       "isAccordion": false,
	       "children": [
	       ]
	   },
	   "name": "Process"
	},
	{
	   "_id": "BLOCK_TRIGGER",
	   "_rev": "6-18eae11a0b9a4226271aac274700240e",
	   "type": "trigger",
	   "level": "screen",
	   "icon": "path/to/icon-navbar.png",
	   "parent": "components",
	   "states": {
	       "out": [
	           "true",
	           "false"
	       ]
	   },
	   "events": null,
	   "resume": "A trigger allows to create the conditions to activate a screen of a process. These conditions are states and events that can be acumulated.",
	   "selected": false,
	   "previewable": false,
	   "inspector": {
	       "type": "main",
	       "text": "",
	       "field": null,
	       "isAccordion": false,
	       "children": [
	       ]
	   },
	   "name": "Trigger"
	},
	{
	   "_id": "BLOCK_PROCESS",
	   "_rev": "2-4c5ad4c682812c9cfc83e9ae832956c2",
	   "type": "process",
	   "level": "screen",
	   "icon": "path/to/icon-navbar.png",
	   "states": {
	       "in": [
	           "play",
	           "stop"
	       ],
	       "out": [
	           "play",
	           "stop"
	       ]
	   },
	   "events": null,
	   "autoStart": true,
	   "autoLinkActivation": {
		"connection": {
			"activate": {
				"pluggable" : true,
				"force": true
				}
			}
   		},
	   "resume": "A process is a logic components container. It allows to build the interactivity and behaviors of the experience. It can be place in the Logic View of a process or a widget, and also at the experience level next to the screens.",
	   "selected": false,
	   "previewable": false,
	   "parent": "components",
	   "inspector": {
	       "type": "main",
	       "text": "",
	       "field": null,
	       "isAccordion": false,
			"children": [
				 {
					 "type": "topic",
					 "name": "topic1",
					 "title": "Settings",
					 "isAccordion": true,
					 "invisible": true,
					 "children": [
							{
								"type": "param",
								"name": "template",
								"widget": "boolean",
								"coreFormat": "Boolean",
								"default": false,
								"label": "Instance",
								"deprecated": true,
								"invisible": true
							}
					 ]
				 }
			]
	   },
	   "name": "Process"
	},
	{
	   "_id": "BLOCK_WIDGET_TRIGGER",
	   "_rev": "6-18eae11a0b9a4226271aac274700240e",
	   "type": "trigger",
	   "level": "widget",
	   "icon": "path/to/icon-navbar.png",
	   "parent": "widgetblocks",
	   "states": {
	       "out": [
	           "true",
	           "false"
	       ]
	   },
	   "events": null,
	   "resume": "A trigger allows to create the conditions to activate a screen of a process. These conditions are states and events that can be acumulated.",
	   "selected": false,
	   "previewable": false,
	   "inspector": {
	       "type": "main",
	       "text": "",
	       "field": null,
	       "isAccordion": false,
	       "children": [
	       ]
	   },
	   "name": "Trigger"
	},
	{
	   "_id": "BLOCK_WIDGET_PROCESS",
	   "_rev": "2-4c5ad4c682812c9cfc83e9ae832956c2",
	   "type": "process",
	   "level": "widget",
	   "icon": "path/to/icon-navbar.png",
	   "states": {
	       "in": [
	           "play",
	           "stop"
	       ],
	       "out": [
	           "play",
	           "stop"
	       ]
	   },
	   "events": null,
	   "autoStart": true,
	   "resume": "A process is a logic components container. It allows to build the interactivity and behaviors of the experience. It can be place in the Logic View of a process or a widget, and also at the experience level next to the screens.",
	   "selected": false,
	   "previewable": false,
	   "parent": "widgetblocks",
	   "inspector": {
	       "type": "main",
	       "text": "",
	       "field": null,
	       "isAccordion": false,
	       "children": [
	       ]
	   },
	   "name": "Process"
	},
	{
	   "_id": "BLOCK_POST_IT",
	   "_rev": "4-7c63b7987699d3a806c88b9fa91c0c00",
	   "type": "note",
	   "name": "Post-it",
	   "level": "main",
	   "icon": "path/to/icon-screen.png",
	   "states": null,
	   "events": null,
	   "resume": "This modules create a text field directly in the workspace. It allows to add annotation(s).",
	   "selected": false,
	   "previewable": false,
	   "parent": "note",
	   "inspector": {
	       "type": "main",
	       "text": "",
	       "field": null,
	       "isAccordion": false,
	       "children": [
			   	{
					"type": "field",
					"name": "value",
					"widget": "string",
					"coreFormat": "String",
					"default": "",
					"label": "Value",
					"connection": {
					"in": {
						"pluggable": false,
						"default": false,
						"disabled": true
					},
					"out": {
						"pluggable": false,
						"default": false,
						"disabled": true
					}
					}
				}
	       ]
	   }
	},
	{
	   "_id": "BLOCK_TREE",
	   "_rev": "15-75b01e77900b0f6c70e35e7ce2ba2ccd",
	   "type": "tree",
	   "tree": [
	       {
	           "name": "experience",
	           "title": "Experience",
	           "icon": "experience",
	           "children": null
	       },
	       {
	           "name": "screenblocks",
	           "title": "Blocks",
	           "icon": "blocks",
	           "children": null
	       },
	       {
	           "name": "widgetblocks",
	           "title": "Blocks",
	           "icon": "blocks",
	           "children": null
	       },
	       {
	           "name": "components",
	           "title": "Components",
	           "icon": "components",
	           "children": null
	       },
	       {
	           "name": "modules",
	           "title": "Modules",
	           "icon": "modules",
	           "children": [
	               {
	                   "name": "audio-fmod",
	                   "title": "FMOD",
	                   "icon": "fmod",
	                   "children": null
	               },
                   {
	                   "name": "asset",
	                   "title": "Asset",
	                   "icon": "group-asset",
	                   "children": null
	               },
	               {
	                   "name": "audio-sources",
	                   "title": "Audio Sources",
	                   "icon": "audio",
	                   "children": null
	               },
	               {
	                   "name": "audio-signal",
	                   "title": "Audio Signal",
	                   "icon": "audio-signal",
	                   "children": null
	               },
	               {
	                   "name": "debug",
	                   "title": "Debug",
	                   "icon": "debug",
	                   "children": null
	               },
	               {
	                   "name": "graphics",
	                   "title": "Graphics",
	                   "icon": "graphics",
	                   "children": null
	               },
	               {
	                   "name": "vector-graphics",
	                   "title": "2D Vector Graphics",
	                   "icon": "vector2d",
	                   "children": null
	               },
	               {
	                   "name": "input",
	                   "title": "Inputs",
	                   "icon": "inputs",
	                   "children": null
	               },
	               {
	                   "name": "map",
	                   "title": "Map",
	                   "icon": "map",
	                   "children": null
	               },
	               {
	                   "name": "memory",
	                   "title": "Memory",
	                   "icon": "memory",
	                   "children": null
	               },
	               {
	                   "name": "network",
	                   "title": "Network",
	                   "icon": "network",
	                   "children": null
	               },
	               {
	                   "name": "objects",
	                   "title": "Objects",
	                   "icon": "objects",
	                   "children": null
	               },
	               {
	                   "name": "node",
	                   "title": "Node",
	                   "icon": "space",
	                   "children": null
	               },
	               {
	                   "name": "time",
	                   "title": "Time",
	                   "icon": "time",
	                   "children": null
	               },
	               {
	                   "name": "transform",
	                   "title": "Transform",
	                   "icon": "transform",
	                   "children": null
	               },
	               {
	                   "name": "UI",
	                   "title": "UI",
	                   "icon": "uimodule",
	                   "children": null
	               }
	           ]
	       },
	       {
	           "name": "ui-objects",
	           "title": "UI Objects",
	           "icon": "object-ui-screen",
	           "children":  [
	               {
	                   "name": "ui-layouts",
	                   "title": "Layouts",
	                   "icon": "object-ui-layout-2-col",
	                   "children": null
	               },
				   {
	                   "name": "ui-elements",
	                   "title": "Elements",
	                   "icon": "section",
	                   "children": null
	               },
				   {
	                   "name": "ui-inputs",
	                   "title": "Inputs",
	                   "icon": "inputs",
	                   "children": null
	               },
				   {
	                   "name": "ui-maps",
	                   "title": "Map",
	                   "icon": "map",
	                   "children": null
	               },
				   {
	                   "name": "ui-progress",
	                   "title": "Progress",
	                   "icon": "elements",
	                   "children": null
	               },
				   {
	                   "name": "ui-charts",
	                   "title": "Charts",
	                   "icon": "progress",
	                   "children": null
	               },
				   {
	                   "name": "nodal-objects",
	                   "title": "Nodal Objects",
	                   "icon": "section",
	                   "children": null
	               },
				   {
	                   "name": "3d-objects",
	                   "title": "3D Objects",
	                   "icon": "section",
	                   "children": null
	               }
			   ]
	       },
	       {
	           "name": "objects",
	           "title": "Objects",
	           "icon": "objects",
	           "children": null
	       },
	       {
	           "name": "note",
	           "title": "Notes",
	           "icon": "note",
	           "children": null
	       }
	   ]
	}
]
