{
  "ui-object": {
    "name": "Ui Object",
    "type": "ui-object"
  },
  "ui-layout-2-col": {
    "name": "Layout 2 Cols",
    "type": "ui-layout-2-col"
  },
  "ui-line-path": {
    "name": "LinePath",
    "type": "ui-line-path"
  },
  "MapOL Marker-texture": {
    "name": "texture",
    "type": "field",
    "obj": "MapOL Marker"
  },
  "ui-textfield": {
    "name": "TextField",
    "type": "ui-textfield"
  },
  "TextField-maxLength": {
    "name": "maxLength",
    "type": "field",
    "obj": "TextField"
  },
  "Video Player-play": {
    "name": "play",
    "type": "field",
    "obj": "Video Player"
  },
  "switch": {
    "name": "Switch",
    "type": "switch"
  },
  "qrcode-scanner": {
    "name": "QRCode Stream Analyser (Deprecated)",
    "type": "qrcode-scanner"
  },
  "euler-to-vector": {
    "name": "Euler to vector",
    "type": "euler-to-vector"
  },
  "descrete-scale": {
    "name": "Descrete scale",
    "type": "descrete-scale"
  },
  "Counter-loopToogle": {
    "name": "loopToogle",
    "type": "field",
    "module": "Counter"
  },
  "Counter-set": {
    "name": "set",
    "type": "field",
    "module": "Counter"
  },
  "instance-process": {
    "name": "Process Instance",
    "type": "instance-process"
  },
  "upload-media": {
    "name": "Upload Media",
    "type": "upload-media"
  },
  "sound-preloader": {
    "name": "Sound Preloader",
    "type": "sound-preloader"
  },
  "session-user": {
    "name": "Session user",
    "type": "session-user"
  },
  "session-manager": {
    "name": "Session manager",
    "type": "session-manager"
  },
  "session-data": {
    "name": "Session data",
    "type": "session-data"
  },
  "http-request": {
    "name": "API JSON Parser",
    "type": "http-request"
  },
  "Array Row-arrayLength": {
    "name": "arrayLength",
    "type": "field",
    "module": "Array Row"
  },
  "Array Row-nextRow": {
    "name": "nextRow",
    "type": "field",
    "module": "Array Row"
  },
  "Array Row-none": {
    "name": "none",
    "type": "field",
    "module": "Array Row"
  },
  "array-get-row-count": {
    "name": "Array Get Row Count",
    "type": "array-get-row-count"
  },
  "access-memory": {
    "name": "Access Memory",
    "type": "access-memory"
  },
  "date": {
    "name": "Date",
    "type": "date"
  },
  "audio-stream-player": {
    "name": "Audio Stream Player",
    "type": "audio-stream-player"
  },
  "ambisonic-player": {
    "name": "Ambisonic Player",
    "type": "ambisonic-player"
  },
  "panner-node": {
    "name": "Panner Node",
    "type": "panner-node"
  },
  "audio-listener": {
    "name": "Audio Listener",
    "type": "audio-listener"
  }
}